<?xml version="1.0" encoding="utf-8"?>
<!-- Svg Vector Icons : http://www.onlinewebfonts.com/icon -->
<!DOCTYPE svg PUBLIC "-//W3C//DTD SVG 1.1//EN" "http://www.w3.org/Graphics/SVG/1.1/DTD/svg11.dtd">
<svg version="1.1" xmlns="http://www.w3.org/2000/svg" xmlns:xlink="http://www.w3.org/1999/xlink" x="0px" y="0px" viewBox="0 0 1000 1000" enable-background="new 0 0 1000 1000" xml:space="preserve">
<metadata> Svg Vector Icons : http://www.onlinewebfonts.com/icon </metadata>
<g><path d="M934.7,496.3H812.3v-21.7c0-51.6-37.1-93.7-85.9-103.5c-22.5,55.2-76.8,94.3-140.2,94.3c-64.5,0-119.6-40.5-141.3-97.4h-23.2c-27.3,70.6-96,120.9-176.3,120.9c-76.5,0-142.3-45.5-172.1-110.8C36.1,394.8,10,431.4,10,474.7v295.6c0,58.9,47.9,106.6,107,106.6h588.4c59.1,0,107-47.7,107-106.6v-11h122.4c30.5,0,55.3-24.7,55.3-55.1V551.5C990,521,965.2,496.3,934.7,496.3z M640,743.3H166.1c-5.9,0-10.8-4.8-10.8-10.8c0-5.9,4.8-10.7,10.8-10.7H640c5.9,0,10.8,4.8,10.8,10.7C650.8,738.4,645.9,743.3,640,743.3z M640,657.4H166.1c-5.9,0-10.8-4.8-10.8-10.7c0-5.9,4.8-10.8,10.8-10.8H640c5.9,0,10.8,4.8,10.8,10.8C650.8,652.6,645.9,657.4,640,657.4z M640,571.5H166.1c-5.9,0-10.8-4.8-10.8-10.8c0-5.9,4.8-10.7,10.8-10.7H640c5.9,0,10.8,4.8,10.8,10.7C650.8,566.7,645.9,571.5,640,571.5z"/><path d="M587.7,433c71.7,0,129.8-57.9,129.8-129.4c0-71.5-58.1-129.4-129.8-129.4C516,174.3,458,232.2,458,303.7C458,375.1,516,433,587.7,433z M587.7,251.6c28.8,0,52.3,23.4,52.3,52.1c0,28.7-23.5,52.1-52.3,52.1c-28.8,0-52.2-23.4-52.2-52.1C535.5,275,558.9,251.6,587.7,251.6z"/><path d="M247.8,457.1c92.5,0,167.5-74.8,167.5-167c0-92.2-75-167-167.5-167c-92.5,0-167.6,74.8-167.6,167C80.2,382.3,155.3,457.1,247.8,457.1z M247.8,221.7c37.9,0,68.6,30.6,68.6,68.4c0,37.8-30.7,68.4-68.6,68.4c-37.9,0-68.6-30.6-68.6-68.4C179.2,252.3,209.9,221.7,247.8,221.7z"/></g>
</svg>